Time,GX,GY,GZ
2.102,0.0,0.31,0.25
2.207,-0.12,0.37,0.19
2.312,0.37,0.12,-0.25
2.417,-0.25,-0.19,-0.44
2.525,0.19,-0.37,-0.44
2.63,0.5,-0.19,-0.44
2.737,0.0,0.37,0.19
2.843,-0.06,0.25,0.31
2.949,0.0,0.25,0.25
3.056,-0.12,0.19,0.25
3.161,-0.44,0.44,0.44
3.267,-0.19,0.19,0.06
3.373,0.06,-0.06,-0.06
3.479,-0.31,0.0,0.31
3.586,-0.06,0.06,0.12
3.691,0.25,0.06,-0.06
3.799,0.12,-0.06,0.06
3.903,-1.12,-0.75,0.88
4.011,22.69,-0.88,0.56
4.116,56.94,-57.94,34.5
4.221,79.44,-37.75,29.37
4.327,53.94,72.62,6.56
4.432,54.5,153.69,-25.56
4.541,38.19,196.06,-44.44
4.647,21.19,163.75,-13.56
4.753,-14.13,34.63,-11.56
4.86,-21.25,2.31,-13.63
4.966,-11.69,-176.31,28.5
5.071,9.94,-208.88,21.69
5.177,53.19,-127.06,8.69
5.282,-40.44,-49.38,-2.63
5.387,-7.63,0.81,-1.88
5.494,2.25,2.06,-0.37
5.6,2.5,0.37,-0.88
5.706,-0.44,0.12,-2.69
5.813,-2.94,-0.94,1.5
5.918,0.44,-4.0,1.69
6.024,20.56,38.25,5.69
6.128,29.56,94.44,-6.75
6.234,21.37,138.19,-22.37
6.341,-24.31,198.69,-80.87
6.448,-58.44,42.19,-10.13
6.555,-4.31,1.06,0.12
6.661,4.63,-1.06,7.44
6.767,1.19,-68.75,36.31
6.873,-11.44,-290.88,61.06
6.978,-0.75,-214.63,20.19
7.084,15.75,-38.5,-3.13
7.19,-20.12,1.19,10.06
7.297,4.06,-0.25,-0.63
7.402,6.0,1.12,-1.69
7.51,25.37,38.44,9.81
7.616,63.19,139.25,2.25
7.723,25.87,159.06,-28.37
7.828,-22.31,148.38,-54.63
7.933,-26.0,41.81,-29.06
8.038,-3.19,-10.31,4.25
8.143,6.44,-13.81,9.63
8.251,19.87,-201.31,57.0
8.357,-21.31,-326.25,38.31
8.463,32.69,-45.69,-17.0
8.57,-24.5,5.56,4.44
8.676,-0.25,14.69,5.44
8.781,-5.63,3.25,-1.31
8.886,-1.75,2.44,-0.94
8.991,-1.37,10.94,-2.69
9.097,3.06,25.69,-1.0
9.204,-1.44,20.19,-0.88
9.31,51.25,266.44,-24.31
9.417,-43.19,119.5,-42.06
9.525,-14.0,42.31,-19.94
9.629,0.0,-11.25,7.56
9.735,28.19,-203.31,64.12
9.84,-11.06,-230.56,28.5
9.946,26.37,-42.56,-21.81
10.052,-13.56,13.69,-1.25
10.158,-5.0,10.5,1.69
10.265,47.06,503.38,-137.44
10.375,-19.69,0.69,-25.5
10.48,-71.31,-311.5,47.63
10.586,68.5,-138.81,23.56
10.691,6.63,-18.25,-20.25
10.796,-19.87,18.25,-3.06
10.901,-7.88,7.19,4.56
11.009,3.38,-4.13,1.25
11.114,4.06,-0.63,-0.56
11.22,-2.56,5.31,-2.13
11.327,12.13,14.63,-9.06
11.432,-4.88,23.31,1.12
11.538,-2.31,16.37,-2.13
11.643,-0.88,25.5,-3.06
11.749,-3.56,25.12,-5.06
11.853,-4.38,27.75,-2.69
11.961,1.88,34.69,-3.5
12.067,2.19,36.19,-11.38
12.174,-14.63,27.37,-12.13
12.281,-19.06,33.25,-14.94
12.386,-21.37,40.06,-4.56
12.491,-11.13,32.88,-0.88
12.597,-13.44,44.0,-8.63
12.702,-10.5,36.13,-10.81
12.808,-4.06,17.31,-3.81
12.914,0.56,0.75,1.12
13.021,-0.44,27.37,-3.69
13.126,-5.13,19.62,-5.5
13.234,-1.31,19.62,-4.19
13.339,5.06,33.31,-3.0
13.444,-0.37,24.06,-5.38
13.549,-0.88,6.5,-4.88
13.655,0.44,29.87,-3.31
13.76,0.25,45.06,-11.75
13.867,-1.56,-9.13,-1.69
13.973,3.06,-3.94,6.44
14.078,7.13,-39.63,22.31
14.186,12.81,-38.19,18.0
14.291,5.5,-82.31,15.75
14.397,30.5,-182.19,40.38
14.502,0.94,-205.88,16.25
14.608,11.75,-81.56,-5.5
14.715,-8.69,4.13,-5.25
14.821,-1.0,83.37,-3.94
14.928,29.25,132.31,-10.69
15.037,-4.38,199.38,-81.0
15.142,-21.75,136.75,-61.06
15.248,-14.25,-8.94,-5.06
15.353,4.56,-11.88,6.06
15.459,16.12,-46.13,19.06
15.564,4.69,-130.81,25.31
15.671,18.81,-164.31,40.38
15.778,-7.56,-73.44,20.56
15.884,-21.75,2.44,-4.94
15.991,-14.69,2.94,2.38
16.097,1.19,-3.75,0.31
16.202,-1.25,-0.56,-2.88
16.307,-0.81,2.88,-1.37
16.412,0.88,3.13,-3.31
16.518,10.75,6.13,-0.69
16.624,14.81,18.87,1.63
16.731,11.25,13.56,-2.75
16.836,5.88,30.81,-7.38
16.944,-16.5,35.06,-2.13
17.049,-10.94,55.69,-1.88
17.154,-14.19,47.75,-13.38
17.259,-22.56,94.06,-31.5
17.364,-29.06,114.69,-46.63
17.474,10.06,42.94,-4.88
17.58,-9.0,-1.63,-10.06
17.686,-0.63,-2.44,-0.12
17.793,0.88,0.19,0.94
17.898,9.88,-49.69,26.5
18.003,23.25,-147.5,36.69
18.109,37.94,-190.0,50.13
18.214,16.81,-109.56,25.25
18.32,1.81,-5.13,-15.31
18.427,-10.81,33.19,-9.75
18.534,-5.56,17.62,-1.06
18.64,5.75,-4.06,0.06
18.747,77.0,100.0,-23.94
18.852,3.06,198.25,-76.0
18.96,19.37,-240.25,46.69
19.065,3.5,-61.13,32.94
19.171,2.38,9.13,-17.56
19.278,-48.5,0.94,1.44
19.384,-25.87,15.31,-1.5
19.491,-2.56,3.44,-2.38
19.597,3.38,-2.69,0.25
19.703,-5.38,2.88,-2.69
19.808,-2.0,2.13,-0.37
19.913,-0.5,-1.31,0.56
20.019,-1.94,2.63,-2.0
20.124,1.19,14.06,-4.5
20.232,-5.63,23.5,-6.5
20.337,-17.75,42.81,-7.69
20.444,-14.13,43.75,-6.5
20.55,-16.5,18.69,-6.31
20.656,2.81,17.75,1.0
20.761,16.5,43.88,-2.56
20.867,1.75,39.06,-4.88
20.972,-12.38,27.81,-10.06
21.078,-11.13,23.87,-6.75
21.184,-13.25,31.44,-14.0
21.289,-14.75,31.56,-13.5
21.397,-17.31,26.75,-16.06
21.504,-4.44,10.06,-2.5
21.609,-1.06,0.5,-1.37
21.714,1.81,-11.13,4.0
21.819,19.0,-99.56,38.5
21.924,23.19,-142.69,30.56
22.03,-7.31,-160.0,17.94
22.137,10.25,-164.63,29.37
22.244,21.5,-69.56,-8.75
22.35,-85.87,-9.19,5.88
22.458,-153.06,3.88,-14.81
22.563,-125.31,17.69,-30.75
22.668,-86.56,-3.5,-7.44
22.773,-9.06,-4.31,-3.81
22.879,-21.12,4.94,-26.25
22.984,35.38,-16.69,5.69
23.091,28.56,-3.75,11.19
23.198,2.63,14.88,-2.38
23.304,-11.63,-6.44,-22.19
23.411,-37.44,27.62,-32.06
23.517,-14.06,11.88,-3.94
23.621,0.63,5.88,-7.38
23.727,11.31,1.0,2.94
23.832,-10.44,4.19,-15.88
23.939,-11.56,15.0,-8.25
24.044,-10.19,5.63,-5.13
24.152,-37.88,26.37,-14.06
24.257,-15.56,-6.0,-6.5
24.365,12.56,1.94,-2.44
